<svg xmlns="http://www.w3.org/2000/svg" xmlns:xlink="http://www.w3.org/1999/xlink" id="Layer_rollout" data-name="Layer Rollout" viewBox="0 0 30 30">
  <defs>
    <style>
      .rollout-1{fill:#0580b1}.rollout-2{fill:url(#linear-gradient)}.rollout-3{fill:#1c5068}.rollout-4{fill:url(#linear-gradient-2)}.rollout-5{fill:#133559}.rollout-6{fill:url(#linear-gradient-3)}
    </style>
    <linearGradient id="linear-gradient" x1="12.18" y1="18.89" x2="18.19" y2="32.49" gradientUnits="userSpaceOnUse">
      <stop offset="0" stop-color="#29a1d9"/>
      <stop offset="1" stop-color="#0580b1"/>
    </linearGradient>
    <linearGradient id="linear-gradient-2" x1="10.82" y1="9.13" x2="21.3" y2="39.21" gradientUnits="userSpaceOnUse">
      <stop offset="0" stop-color="#0580b1"/>
      <stop offset="1" stop-color="#1c5068"/>
    </linearGradient>
    <linearGradient id="linear-gradient-3" x1=".97" y1="-3.06" x2="23.14" y2="19.45" xlink:href="#linear-gradient-2"/>
  </defs>
  <path class="rollout-1" d="M25.42 27.06a2.79 2.79 0 0 1-2.79 2.79h-17a2.79 2.79 0 0 1-2.79-2.79l2.75-12.13a2.79 2.79 0 0 1 2.79-2.79h11.45a2.79 2.79 0 0 1 2.79 2.79z"/>
  <path class="rollout-2" d="M25.42 26.17A2.79 2.79 0 0 1 22.63 29h-17a2.79 2.79 0 0 1-2.79-2.79L5.59 14a2.79 2.79 0 0 1 2.79-2.79h11.45a2.79 2.79 0 0 1 2.8 2.79z"/>
  <path class="rollout-3" d="M26.82 21.4A2.79 2.79 0 0 1 24 24.19H4.19A2.79 2.79 0 0 1 1.4 21.4L4.19 9.26A2.79 2.79 0 0 1 7 6.47h14.23A2.79 2.79 0 0 1 24 9.26z"/>
  <path class="rollout-4" d="M26.82 20.61A2.79 2.79 0 0 1 24 23.4H4.19a2.79 2.79 0 0 1-2.79-2.79L4.19 8.47A2.79 2.79 0 0 1 7 5.68h14.23A2.79 2.79 0 0 1 24 8.47z"/>
  <path class="rollout-5" d="M28.21 15.73a2.79 2.79 0 0 1-2.79 2.79H2.79A2.79 2.79 0 0 1 0 15.73L2.79 3.59A2.79 2.79 0 0 1 5.59.8h17a2.79 2.79 0 0 1 2.79 2.79z"/>
  <path class="rollout-6" d="M28.21 14.93a2.79 2.79 0 0 1-2.79 2.79H2.79A2.79 2.79 0 0 1 0 14.93L2.79 2.79A2.79 2.79 0 0 1 5.59 0h17a2.79 2.79 0 0 1 2.79 2.79z"/>
  <path class="rollout-1" d="M25.42 27.06a2.79 2.79 0 0 1-2.79 2.79h-17a2.79 2.79 0 0 1-2.79-2.79l2.75-12.13a2.79 2.79 0 0 1 2.79-2.79h11.45a2.79 2.79 0 0 1 2.79 2.79z"/>
  <path class="rollout-2" d="M25.42 26.17A2.79 2.79 0 0 1 22.63 29h-17a2.79 2.79 0 0 1-2.79-2.79L5.59 14a2.79 2.79 0 0 1 2.79-2.79h11.45a2.79 2.79 0 0 1 2.8 2.79z"/>
  <path class="rollout-3" d="M26.82 21.4A2.79 2.79 0 0 1 24 24.19H4.19A2.79 2.79 0 0 1 1.4 21.4L4.19 9.26A2.79 2.79 0 0 1 7 6.47h14.23A2.79 2.79 0 0 1 24 9.26z"/>
  <path class="rollout-4" d="M26.82 20.61A2.79 2.79 0 0 1 24 23.4H4.19a2.79 2.79 0 0 1-2.79-2.79L4.19 8.47A2.79 2.79 0 0 1 7 5.68h14.23A2.79 2.79 0 0 1 24 8.47z"/>
  <path class="rollout-5" d="M28.21 15.73a2.79 2.79 0 0 1-2.79 2.79H2.79A2.79 2.79 0 0 1 0 15.73L2.79 3.59A2.79 2.79 0 0 1 5.59.8h17a2.79 2.79 0 0 1 2.79 2.79z"/>
  <path class="rollout-6" d="M28.21 14.93a2.79 2.79 0 0 1-2.79 2.79H2.79A2.79 2.79 0 0 1 0 14.93L2.79 2.79A2.79 2.79 0 0 1 5.59 0h17a2.79 2.79 0 0 1 2.79 2.79z"/>
</svg>